{
  "$schema": "http://json-schema.org/draft-06/schema#",
  "$id": "http://example.com/root.json",
  "type": "array",
  "title": "The Root Schema",
  "items": {
    "$id": "#/items",
    "type": "object",
    "title": "The Items Schema",
    "required": [
      "model",
      "cOfOrigin",
      "type",
      "ceiling",
      "wConf",
      "price"
    ],
    "properties": {
      "model": {
        "$id": "#/items/properties/model",
        "type": "string",
        "title": "The Model Schema",
        "default": "",
        "examples": [
          "Bf-109G"
        ],
        "pattern": "^(.*)$"
      },
      "cOfOrigin": {
        "$id": "#/items/properties/cOfOrigin",
        "type": "string",
        "title": "The Coforigin Schema",
        "default": "",
        "examples": [
          "Germany"
        ],
        "pattern": "^(.*)$"
      },
      "type": {
        "$id": "#/items/properties/type",
        "type": "string",
        "title": "The Type Schema",
        "default": "",
        "examples": [
          "fighter"
        ],
        "pattern": "^(.*)$"
      },
      "ceiling": {
        "$id": "#/items/properties/ceiling",
        "type": "integer",
        "title": "The Ceiling Schema",
        "default": 0,
        "examples": [
          12000
        ]
      },
      "wConf": {
        "$id": "#/items/properties/wConf",
        "type": "object",
        "title": "The Wconf Schema",
        "required": [
          "gunNum",
          "machGunNum"
        ],
        "properties": {
          "gunNum": {
            "$id": "#/items/properties/wConf/properties/gunNum",
            "type": "integer",
            "title": "The Gunnum Schema",
            "default": 0,
            "examples": [
              1
            ]
          },
          "machGunNum": {
            "$id": "#/items/properties/wConf/properties/machGunNum",
            "type": "integer",
            "title": "The Machgunnum Schema",
            "default": 0,
            "examples": [
              2
            ]
          }
        }
      },
      "price": {
        "$id": "#/items/properties/price",
        "type": "integer",
        "title": "The Price Schema",
        "default": 0,
        "examples": [
          95000
        ]
      }
    }
  }
}