[
    {
      "model": "Bf-109G",
      "cOfOrigin": "Germany",
      "type": "fighter",
      "ceiling": 12000,
      "wConf": {
        "gunNum": 1,
        "machGunNum": 2
      },
      "price": 95000
    },
    {
      "model": "Spitfire mkV",
      "cOfOrigin": "Great Britain",
      "type": "fighter",
      "ceiling": 10000,
      "wConf": {
        "gunNum": 0,
        "machGunNum": 6
      },
      "price": 90000
    },
    {
      "model": "P-63A",
      "cOfOrigin": "USA",
      "type": "striking fighter",
      "ceiling": 11000,
      "wConf": {
        "gunNum": 2,
        "machGunNum": 4
      },
      "price": 10000
    }
]
